{
    "root_dir": "CHARON_EXAMPLE",
    "sharedLibraries_test": [
        {
            "name": "sharedlibraryexample_test",
            "remote": "https://gitlab.com/charon_deployer_test/sharedlibraryexample.git",
            "id": "sharedlibraryexample_test"
        }
    ],
    "sharedLibraries": [
        {
            "name": "sharedlibraryexample",
            "remote": "https://git.netcracker.com/alkr0919/sharedlibraryexample.git",
            "id": "sharedlibraryexample",
            "CredentialsId": "jenkins-charon-logpass"
        }
    ],
    
    "permissions": {},
    "zones": {
        "test":{
            "label": "TEST"
        },
        "staging":{
            "label": "STAGING"
        },
        "production":{
            "label": "PRODUCTION"
        }
    },
    "global_parameters" : [
        {"name": "GROUP_VARS_ALL_PROJECT", "value": "charon_deployer_test/group_vars_all.git", "description": "Проект с inventory репозиторием group_vars all.yml"},
        {"name": "ANSIBLE_ROLES_PROJECT", "value": "charon_deployer_test/ansible-downloader.git", "description": "Проект ролями для загрузки зависимостей и инсталляторов"},
        {"name": "GIT_URL", "value": "git@gitlab.com:", "description": ""},
        {"name": "GIT_HTTP_URL", "value": "https://gitlab.com/", "description": ""}
    ],
    "jobs":{ 
            "TEST_PRODUCT": {
                    "parameters":{
                         "INVENTORY_PROJECT":{"value": "charon_deployer/sample-inventory-2.git", "description": "Проект с inventory репозиторием"},
                         "PLAYBOOK": {"value": "playbook.yml", "description": "Основной плэйбук для деплоя"},
                         "INSTALLER_REPO": {"value": "charon_deployer_test/sample-playbook.git", "description": "Путь до инсталлятора"}
                    },
                    "pipeline_script_path": "deploy.Jenkinsfile"
                }
        }
  }
  
